INDEX VERSION 1.126+/home/rui/PCJ/.metadata/.plugins/org.eclipse.jdt.core
3015506015.index
1031082134.index
4136479307.index
867080356.index
769158652.index
2915699975.index
535695230.index
2017739394.index
1248993280.index
1911688873.index
1760116712.index
2263310020.index
4058017362.index
2003957973.index
374883157.index
2173344477.index
1633645507.index
3670883729.index
1524587882.index
1151969330.index
1870986225.index
1126796878.index
3300640969.index
2863122718.index
1995008317.index
1172719175.index
2261401845.index
2684120965.index
2121552305.index
256078356.index
2559683484.index
4019624714.index
1571985779.index
716548581.index
885218493.index
936794247.index
1136946219.index
1983848016.index
3908787987.index
3718314376.index
761473540.index
116735551.index
